{
    "music": {
        "name": "Musique",
        "questions": [
            {
                "id": 0,
                "question": "Combien y a-t-il de touches sur un piano classique ?",
                "answers": [
                    "84", "86", "88", "90"
                ]
            },
            {
                "id": 1,
                "question": "Combien y a-t-il de cordes sur une guitare ?",
                "answers": [
                    "4","5","6","7"
                ]
            },
            {
                "id": 2,
                "question": "Qui chante la bande originale du film Armaggedon ?",
                "answers": [
                    "Aerosmith", "The Who", "The Beatles", "AC/DC"
                ]
            },
            {
                "id": 3,
                "question": "Quel type de cymbale n'existe pas ?",
                "answers": [
                    "Charleston", "Crash", "Ride", "Japan"
                ]
            },
            {
                "id": 4,
                "question": "Quel groupe n'est pas français ?",
                "answers": [
                    "kKillers", "Nightmare", "Heavenly", "Morphine"
                ]
            },
            {
                "id": 5,
                "question": "Quel est le nom de la muse de la musique ?",
                "answers": [
                    "Euterpe", "Melpomène", "Polymnie", "Terpsichore"
                ]
            },
            {
                "id": 6,
                "question": "Quelle clé n'existe pas en musique ?",
                "answers": [
                    "Sol", "Fa", "Ut", "La"
                ]
            },
            {
                "id": 7,
                "question": "Quel groupe porte le nom d'un insecte ?",
                "answers": [
                    "The Spiders", "Scorpions", "The Beatles", "The Ants"
                ]
            },
            {
                "id": 8,
                "question": "Quel groupe chante \"Walk this way\" avec Aerosmith ?",
                "answers": [
                    "RUN DMC", "Beastie Boys", "Grandmaster Flash", "Niggaz WIt Attitudes"
                ]
            },
            {
                "id": 9,
                "question": "Qui chante \"1, 2, 3, 4\" ?",
                "answers": [
                    "Shy'm", "Lio", "Yael Naim", "Feist"
                ]
            },
            {
                "id": 10,
                "question": "Qui chante \"Baba O'Riley\" ?",
                "answers": [
                    "The Who", "The Clash", "The Doors", "The Beatles"
                ]
            },
            {
                "id": 11,
                "question": "En quelle année est sortu l'album \"Bad\" de Michael Jackson ?",
                "answers": [
                    "1986", "1987", "1988", "1989"
                ]
            },
            {
                "id": 12,
                "question": "Qui a gagné The Voice 2014 ?",
                "correct": 3,
                "answers": [
                    "Olympe", "Louane", "Al-Hy", "Kendji Girac"
                ]
            },
            {
                "id": 13,
                "question": "Qui est le chanteur du groupe Nirvana ?",
                "answers": [
                    "John Lennon", "Kurt Cobain", "Paul McCartney", "Sting"
                ]
            },
            {
                "id": 14,
                "question": "Qui chante \"London Calling\" ?",
                "answers": [
                    "The Who", "The Clash", "The Doors", "The Beatles"
                ]
            },
            {
                "id": 15,
                "question": "Quel chanteur/se n'est pas mort à l'âge de 27 ans ?",
                "answers": [
                    "Amy Whinehouse", "Janis Joplin", "Kurt Cobain", "John Lennon"
                ]
            },
            {
                "id": 16,
                "question": "Quel est le surnom d'Eminem ?",
                "answers": [
                    "Slim Shady", "B.Rabbit", "Marshall", "Rap God"
                ]
            },
            {
                "id": 17,
                "question": "Quel est le nom de l'ancien groupe de Beyoncé ?",
                "answers": [
                    "Spice Girls", "Pussycat Dolls", "Destiny's Child", "Little Mix"
                ]
            },
            {
                "id": 18,
                "question": "Qui ne fait pas partie du groupe Young Money ?",
                "answers": [
                    "Nicki Minaj", "Drake", "Usher", "Tyga"
                ]
            },
            {
                "id": 19,
                "question": "Avec qui Bruno Mars fait-il un duo sur \"Uptown Funk\" ?",
                "answers": [
                    "Mark Ronson", "Eminem", "Slash", "Aaron"
                ]
            }
        ]
    },
    
    "geography": {
        "name": "Géographie",
        "questions": [
            {
                "id": 0,
                "question": "Quelle est la proportion de terres émergées sur la planète ?",
                "answers": [
                    "20% à 25%", "25% à 30%", "30% à 35%", "35% à 40%"
                ]
            },
            {
                "id": 1,
                "question": "Quelle est la capitale de la Chine ?",
                "answers": [
                    "Hong Kong", "Shanghai", "Beijing", "Huang-He"
                ]
            },
            {
                "id": 2,
                "question": "Lequel de ces pays n'a pas de côte donnant sur la mer Méditerranée ?",
                "answers": [
                    "Irlande", "Italie", "Chypre", "France"
                ]
            },
            {
                "id": 3,
                "question": "Quel pays est réputé pour sa consommation de sushi ?",
                "answers": [
                    "Japon", "Inde", "Vietnam", "Cambodge"
                ]
            },
            {
                "id": 4,
                "question": "En terme de superficie, lequel de ces pays est le plus petit ?",
                "answers": [
                    "Brésil", "Chine", "Canada", "Turquie"
                ]
            },
            {
                "id": 5,
                "question": "Quel pays est traversé d'Ouest en Est par le célèbre transsibérien ?",
                "answers": [
                    "Canada", "Russie", "États-Unis", "Chine"
                ]
            },
            {
                "id": 6,
                "question": "Quelle région de France est la plus au Nord ?",
                "answers": [
                    "Haute Normandie", "Lorraine", "Nord Pas de Calais", "Corse"
                ]
            },
            {
                "id": 7,
                "question": "Quel pays n'a pas de frontière avec l'Allemagne ?",
                "answers": [
                    "Pologne", "Autriche", "Italie", "Belgique"
                ]
            },
            {
                "id": 8,
                "question": "Combien de régions la Loire traverse-t-elle ?",
                "answers": [
                    "5", "1", "3", "7"
                ]
            },
            {
                "id": 9,
                "question": "Combien trouve-t-on d'états aux États-Unis ?",
                "answers": [
                    "entre 48 et 53", "entre 33 et 37", "entre 38 et 42", "entre 42 et 47"
                ]
            },
            {
                "id": 10,
                "question": "Sur quelle frontière se trouve le mont Everest, le plus haut sommet du monde ?",
                "answers": [
                    "Inde/Chine", "Inde/Népal", "Bangladesh/Chine", "Chine/Népal"
                ]
            },
            {
                "id": 11,
                "question": "La Russie, le Canada et la Chine forment le podium mondial en terme de superficie. Quel pays suit en 4ème position ?",
                "answers": [
                    "Australie", "Brésil", "États-Unis", "Inde"
                ]
            },
            {
                "id": 12,
                "question": "Dans quel pays se trouve en grande partie la Patagonie ?",
                "answers": [
                    "Canada", "Argentine", "États-Unis", "Mexique"
                ]
            },
            {
                "id": 13,
                "question": "Lequel de ces pays se rapproche le plus du pôle Nord ?",
                "answers": [
                    "Islande", "Norvège", "Finlande", "Suède"
                ]
            },
            {
                "id": 14,
                "question": "De combien de pays l'Amérique du Sud est elle constituée ?",
                "answers": [
                    "9-10", "15-16", "13-14", "11-12"
                ]
            },
            {
                "id": 15,
                "question": "Dans quel Etat américain, le Mississippi prend il sa source ?",
                "answers": [
                    "Minnesota", "Wisconsin", "Dakota du Sud", "Ohio"
                ]
            },
            {
                "id": 16,
                "question": "Combien de fuseaux horaires traverse le transsibérien tout le long de son trajet ?",
                "answers": [
                    "8", "10", "7", "9"
                ]
            },
            {
                "id": 17,
                "question": "Lequel de ces pays est le moins peuplé ?",
                "answers": [
                    "Russie", "Nigeria", "Brésil", "Indonésie"
                ]
            },
            {
                "id": 18,
                "question": "Dans quel Etats américain se trouve la ville de Denver ?",
                "answers": [
                    "Wyoming", "Colorado", "Arizona", "Kansas"
                ]
            },
            {
                "id": 19,
                "question": "Lequel de ces pays n'est pas traversé par l'équateur ?",
                "answers": [
                    "Somalie", "Brésil", "Pérou", "Gabon"
                ]
            },
            {
                "id": 20,
                "question": "Lequel de ces pays n'a pas de côte maritime ?",
                "answers": [
                    "Équateur", "Pérou", "Colombie", "Bolivie"
                ]
            }
        ]
    },
    
    "astronomy": {
        "name": "Astronomie",
        "questions": [
            {
                "id": 0,
                "question": "Sur quelle planète se trouve le plus grand volcan du système solaire ?",
                "answers": [
                    "Jupiter", "Uranus", "Mars", "Terre"
                ]
            },
            {
                "id": 1,
                "question": "Quelle est l'étoile la plus proche du système solaire ?",
                "answers": [
                    "WR 104", "Proxima du centaure", "Sirius", "Glièse 581"
                ]
            },
            {
                "id": 2,
                "question": "Quelle est la forme de l'univers visible ?",
                "answers": [
                    "Infini", "Dodécaèdrique", "Sphérique", "Cubique"
                ]
            },
            {
                "id": 3,
                "question": "Quel pourcentage de la matière de l'univers est décrit par le modèle standard ?",
                "answers": [
                    "100 %", "55 %", "20 %", "5 %"
                ]
            },
            {
                "id": 4,
                "question": "Quel objet se trouve au centre de notre galaxie ?",
                "answers": [
                    "Le Soleil", "Une étoile à neutrons", "Un trou noir", "L'Enterprise"
                ]
            },
            {
                "id": 5,
                "question": "Combien de champ(s) d'astéroïdes possède le système solaire ?",
                "answers": [
                    "3", "2", "1", "0"
                ]
            },
            {
                "id": 6,
                "question": "Après le big bang, quelle est l'explosion la plus puissante de l'univers ?",
                "answers": [
                    "Une supernova", "Une collision d'étoiles à neutrons", "Un blazar", "La bombe H"
                ]
            },
            {
                "id": 7,
                "question": "Quelle est la masse minimale d'une étoile capable de produire une supernovæ lors de son effondrement ?",
                "answers": [
                    "Moins d'une masse solaire", "Huit masses solaires", "25 masses solaires", "140 solaires"
                ]
            },
            {
                "id": 8,
                "question": "Quelle est la masse minimale d'une étoile capable de produire une un trou noir lors de son effondrement ?",
                "answers": [
                    "Moins d'une masse solaire", "Huit masses solaires", "25 masses solaires", "140 solaires"
                ]
            },
            {
                "id": 9,
                "question": "Quel est l'âge du Soleil ?",
                "answers": [
                    "1 milliard d'années", "4,5 milliards d'années", "13,7 milliards d'années", "20 milliards d'années"
                ]
            },
            {
                "id": 10,
                "question": "Lequel de ces astres n'est pas issu de l'effondrement d'une étoile ?",
                "answers": [
                    "Une naine rouge", "Une naine blanche", "Une naine brune", "Une étoile à neutron"
                ]
            },
            {
                "id": 11,
                "question": "Titan, le satellite de Jupiter, possède une atmosphère…",
                "answers": [
                    "Similaire à celle de la Terre", "Composée majoritairement de dioxyde de carbone", "Composée majoritairement de dioxyde de soufre", "Composée majoritairement d'hydrocarbures"
                ]
            },
            {
                "id": 12,
                "question": "Lequel de ces objets ne contient pas de l'eau sous forme solide ?",
                "answers": [
                    "Une comète", "La surface d'Europe", "Les anneaux de Saturne", "La surface de Vénus"
                ]
            },
            {
                "id": 13,
                "question": "Sur quel satellite de Saturne peut-on trouver des geysers ?",
                "answers": [
                    "Encelade", "Titan", "Dioné", "Hypérion"
                ]
            },
            {
                "id": 14,
                "question": "Quelle est la durée d'une année mercurienne ?",
                "answers": [
                    "12 mois mercuriens", "Moins d'une journée mercurienne", "2 journées mercuriennes", "5 journées mercuriennes"
                ]
                
            },
            {
                "id": 15,
                "question": "Parmi ces quatre astres, lequel est le plus petit ?",
                "answers": [
                    "Mercure", "La Lune", "Pluton", "Titan"
                ]
            }
        ]
    },
    
    "history": {
        "name": "Histoire",
        "questions": [
            {
                "id": 0,
                "question": "Qui surnomme-t-on le Roi Soleil ?",
                "answers": [
                    "Louis XIV", "Louis XVI", "Henri II", "Henri IV"
                ]
            },
            {
                "id": 1,
                "question": "En quelle année Charlemagne a-t-il été couronné empereur ?",
                "answers": [
                    "600", "800", "500", "700"
                ]
            },
            {
                "id": 2,
                "question": "Que s'est-il passé le 8 mai 1945 ?",
                "answers": [
                    "Fin de la Seconde Guerre Mondiale", "Mort d'Hitler", "Bombardement nucléaire sur Hiroshima", "Autodafé nazi"
                ]
            },
            {
                "id": 3,
                "question": "Comment était surnommé Mao Zedong ?",
                "answers": [
                    "Le Grand Timonier", "Le Grand Empereur", "Le Petit Timonier", "The Dictator"
                ]
            },
            {
                "id": 4,
                "question": "En quelle année le traité de Maastricht a-t-il été ratifié ?",
                "answers": [
                    "1990", "1991", "1992", "1993"
                ]
            },
            {
                "id": 5,
                "question": "Durant quelle année la guerre du Kippour a-t-elle eu lieu ?",
                "answers": [
                    "1971", "1972", "1973", "1974"
                ]
            },
            {
                "id": 6,
                "question": "Combien de victimes ont été officiellement recensées après les attentats du 11 septembre 2001 ?",
                "answers": [
                    "2996", "3996", "1996", "4996"
                ]
            },
            {
                "id": 7,
                "question": "Quel événement n'a pas eu lieu un 1er janvier ?",
                "answers": [
                    "Décès de Joachim du Bellay", "Découverte du premier astéroïde", "Première représentation de Phèdre", "La Saint-Barthélémy"
                ]
            },
            {
                "id": 8,
                "question": "En 1936, quelle manifestation sportive internationale permit au régime nazi de diffuser la \"nouvelle puissance de l'Allemagne\" ?",
                "answers": [
                    "Les Jeux Olympiques", "La Coupe du Monde de Football", "Le marathon de Berlin", "Les Championnats du Monde de Natation"
                ]
            },
            {
                "id": 9,
                "question": "Quel président étasunien est mort assassiné à Dallas en 1963 ?",
                "answers": [
                    "Abraham Lincoln", "John F. Kennedy", "Richard Nixon", "George W. Bush", "Richard Nixon"
                ]
            },
            {
                "id": 10,
                "question": "En quelle date la République Populaire de Chine a-t-elle été déclarée ?",
                "answers": [
                    "Le 1er octobre 1949", "Le 1er septembre 1949", "Le 1er septembre 1948", "Le 1er octobre 1948"
                ]
            },
            {
                "id": 11,
                "question": "En quelle année Jules César est-il mort ?",
                "answers": [
                    "44 avant J.-C.", "34 avant J.-C.", "54 avant J.-C.", "64 avant J.-C."
                ]
            },
            {
                "id": 12,
                "question": "Parmi ces monuments, lequel n'est pas une pyramide ?",
                "answers": [
                    "Khéops", "Khephren", "Mykérinos", "Mynésotis"
                ]
            },
            {
                "id": 13,
                "question": "Quel général Yankee a gagné la guerre de sécession ?",
                "answers": [
                    "Ulysses Grant", "Robert E. Lee", "Jefferson Davis", "Stand Watie"
                ]
            },
            {
                "id": 14,
                "question": "De quand date la découverte du feu par l'Homme ?",
                "answers": [
                    "-300 000", "-450 000", "-350 000", "-400 000"
                ]
            },
            {
                "id": 15,
                "question": "Lequel de ces bateaux n'a pas participé à la découverte de l'Amérique ?",
                "answers": [
                    "La Pinta", "La Nina", "Le Santa Maria", "La Glauceta"
                ]
            },
            {
                "id": 16,
                "question": "Combien y avait-il de bateaux au départ de l'expédition de Magellan ?",
                "answers": [
                    "3", "4", "5", "6"
                ]
            }
        ]
    }
}
